^zad4.asm
D:\Projekty\Assemblerowe\AS-LAB4-ZAD4\AS-LAB4-ZAD4\Debug\zad4.obj
^zad4.asm
D:\Projekty\Assemblerowe\AS-LAB4-ZAD4\AS-LAB4-ZAD4\Debug\zad4.obj
^zad4.asm
D:\Projekty\Assemblerowe\AS-LAB4-ZAD4\AS-LAB4-ZAD4\Debug\zad4.obj
^zad4.asm
D:\Projekty\Assemblerowe\AS-LAB4-ZAD4\AS-LAB4-ZAD4\Debug\zad4.obj
^zad4.asm
D:\Projekty\Assemblerowe\AS-LAB4-ZAD4\AS-LAB4-ZAD4\Debug\zad4.obj
^zad4.asm
D:\Projekty\Assemblerowe\AS-LAB4-ZAD4\AS-LAB4-ZAD4\Debug\zad4.obj
^zad4.asm
D:\Projekty\Assemblerowe\AS-LAB4-ZAD4\AS-LAB4-ZAD4\Debug\zad4.obj
^zad4.asm
D:\Projekty\Assemblerowe\AS-LAB4-ZAD4\AS-LAB4-ZAD4\Debug\zad4.obj
^zad4.asm
D:\Projekty\Assemblerowe\AS-LAB4-ZAD4\AS-LAB4-ZAD4\Debug\zad4.obj
^zad4.asm
D:\Projekty\Assemblerowe\AS-LAB4-ZAD4\AS-LAB4-ZAD4\Debug\zad4.obj
^zad4.asm
D:\Projekty\Assemblerowe\AS-LAB4-ZAD4\AS-LAB4-ZAD4\Debug\zad4.obj
^zad4.asm
D:\Projekty\Assemblerowe\AS-LAB4-ZAD4\AS-LAB4-ZAD4\Debug\zad4.obj
^zad4.asm
D:\Projekty\Assemblerowe\AS-LAB4-ZAD4\AS-LAB4-ZAD4\Debug\zad4.obj
^zad4.asm
D:\Projekty\Assemblerowe\AS-LAB4-ZAD4\AS-LAB4-ZAD4\Debug\zad4.obj
^zad4.asm
D:\Projekty\Assemblerowe\AS-LAB4-ZAD4\AS-LAB4-ZAD4\Debug\zad4.obj
^zad4.asm
D:\Projekty\Assemblerowe\AS-LAB4-ZAD4\AS-LAB4-ZAD4\Debug\zad4.obj
^zad4.asm
D:\Projekty\Assemblerowe\AS-LAB4-ZAD4\AS-LAB4-ZAD4\Debug\zad4.obj
^zad4.asm
D:\Projekty\Assemblerowe\AS-LAB4-ZAD4\AS-LAB4-ZAD4\Debug\zad4.obj
^zad4.asm
D:\Projekty\Assemblerowe\AS-LAB4-ZAD4\AS-LAB4-ZAD4\Debug\zad4.obj
^zad4.asm
D:\Projekty\Assemblerowe\AS-LAB4-ZAD4\AS-LAB4-ZAD4\Debug\zad4.obj
^zad4.asm
D:\Projekty\Assemblerowe\AS-LAB4-ZAD4\AS-LAB4-ZAD4\Debug\zad4.obj
^zad4.asm
D:\Projekty\Assemblerowe\AS-LAB4-ZAD4\AS-LAB4-ZAD4\Debug\zad4.obj
^zad4.asm
D:\Projekty\Assemblerowe\AS-LAB4-ZAD4\AS-LAB4-ZAD4\Debug\zad4.obj
^zad4.asm
D:\Projekty\Assemblerowe\AS-LAB4-ZAD4\AS-LAB4-ZAD4\Debug\zad4.obj
^zad4.asm
D:\Projekty\Assemblerowe\AS-LAB4-ZAD4\AS-LAB4-ZAD4\Debug\zad4.obj
^zad4.asm
D:\Projekty\Assemblerowe\AS-LAB4-ZAD4\AS-LAB4-ZAD4\Debug\zad4.obj
^zad4.asm
D:\Projekty\Assemblerowe\AS-LAB4-ZAD4\AS-LAB4-ZAD4\Debug\zad4.obj
^zad4.asm
D:\Projekty\Assemblerowe\AS-LAB4-ZAD4\AS-LAB4-ZAD4\Debug\zad4.obj
^zad4.asm
D:\Projekty\Assemblerowe\AS-LAB4-ZAD4\AS-LAB4-ZAD4\Debug\zad4.obj
^zad4.asm
D:\Projekty\Assemblerowe\AS-LAB4-ZAD4\AS-LAB4-ZAD4\Debug\zad4.obj
^zad4.asm
D:\Projekty\Assemblerowe\AS-LAB4-ZAD4\AS-LAB4-ZAD4\Debug\zad4.obj
^zad4.asm
D:\Projekty\Assemblerowe\AS-LAB4-ZAD4\AS-LAB4-ZAD4\Debug\zad4.obj
^zad4.asm
D:\Projekty\Assemblerowe\AS-LAB4-ZAD4\AS-LAB4-ZAD4\Debug\zad4.obj
^zad4.asm
D:\Projekty\Assemblerowe\AS-LAB4-ZAD4\AS-LAB4-ZAD4\Debug\zad4.obj
^zad4.asm
D:\Projekty\Assemblerowe\AS-LAB4-ZAD4\AS-LAB4-ZAD4\Debug\zad4.obj
^zad4.asm
D:\Projekty\Assemblerowe\AS-LAB4-ZAD4\AS-LAB4-ZAD4\Debug\zad4.obj
^zad4.asm
D:\Projekty\Assemblerowe\AS-LAB4-ZAD4\AS-LAB4-ZAD4\Debug\zad4.obj
^zad4.asm
D:\Projekty\Assemblerowe\AS-LAB4-ZAD4\AS-LAB4-ZAD4\Debug\zad4.obj
^zad4.asm
D:\Projekty\Assemblerowe\AS-LAB4-ZAD4\AS-LAB4-ZAD4\Debug\zad4.obj
^zad4.asm
D:\Projekty\Assemblerowe\AS-LAB4-ZAD4\AS-LAB4-ZAD4\Debug\zad4.obj
